
./octez-client --protocol ProtoALphaALphaALphaALphaALphaALphaALphaALphaDdp3zK --mode mockup --no-base-dir-warnings typecheck script tests_python/contracts_alpha/opcodes/self_after_view.tz --details
Well typed
Gas remaining: 1039985.886 units remaining
{ parameter address ;
  storage address ;
  code { CAR
         /* [ address ] */ ;
         DUP
         /* [ address : address ] */ ;
         PUSH nat 0
         /* [ nat : address : address ] */ ;
         VIEW "id" (pair nat nat)
         /* [ option (pair nat nat) : address ] */ ;
         ASSERT_SOME ;
         DROP
         /* [ address ] */ ;
         CONTRACT nat
         /* [ option (contract nat) ] */ ;
         ASSERT_SOME ;
         PUSH mutez 1500
         /* [ mutez : contract nat ] */ ;
         PUSH nat 0
         /* [ nat : mutez : contract nat ] */ ;
         TRANSFER_TOKENS
         /* [ operation ] */ ;
         SELF
         /* [ contract address : operation ] */ ;
         ADDRESS
         /* [ address : operation ] */ ;
         SWAP
         /* [ operation : address ] */ ;
         NIL operation
         /* [ list operation : operation : address ] */ ;
         SWAP
         /* [ operation : list operation : address ] */ ;
         CONS
         /* [ list operation : address ] */ ;
         PAIR
         /* [ pair (list operation) address ] */ } }
