
./octez-client --protocol ProtoALphaALphaALphaALphaALphaALphaALphaALphaDdp3zK --mode mockup --no-base-dir-warnings typecheck script tests_python/contracts_alpha/opcodes/originate_big_map.tz --details
Well typed
Gas remaining: 1039997.334 units remaining
{ parameter (big_map int int) ;
  storage (big_map int int) ;
  code { CAR
         /* [ big_map int int ] */ ;
         NIL operation
         /* [ list operation : big_map int int ] */ ;
         PAIR
         /* [ pair (list operation) (big_map int int) ] */ } }
