
./octez-client --protocol ProtoALphaALphaALphaALphaALphaALphaALphaALphaDdp3zK --mode mockup --no-base-dir-warnings typecheck script tests_python/contracts_alpha/opcodes/create_contract_with_view.tz --details
Well typed
Gas remaining: 1039990.516 units remaining
{ parameter unit ;
  storage (option address) ;
  code { /* [ pair unit unit ] */
         DROP
         /* [ list operation : unit ] */ ;
         UNIT
         /* [ unit ] */ ;
         AMOUNT
         /* [ pair (list operation) unit ] */ ;
         NONE key_hash
         /* [ option key_hash : mutez : unit ] */ ;
         CREATE_CONTRACT
           { parameter unit /* [ nat ] */ ;
             storage unit ;
             code { CDR ; NIL operation ; PAIR } ;
             view "const" nat nat { CAR } }
         /* [ operation : address ] */ ;
         DIP { SOME
               /* [ option address ] */ ;
               NIL operation
               /* [ list operation : option address ] */ }
         /* [ operation : list operation : option address ] */ ;
         CONS
         /* [ list operation : option address ] */ ;
         PAIR
         /* [ pair (list operation) (option address) ] */ } }
