
./octez-client --protocol ProtoALphaALphaALphaALphaALphaALphaALphaALphaDdp3zK --mode mockup --no-base-dir-warnings typecheck script tests_python/contracts_alpha/opcodes/transfer_amount.tz --details
Well typed
Gas remaining: 1039997.443 units remaining
{ parameter unit ;
  storage mutez ;
  code { DROP
         /* [] */ ;
         AMOUNT
         /* [ mutez ] */ ;
         NIL operation
         /* [ list operation : mutez ] */ ;
         PAIR
         /* [ pair (list operation) mutez ] */ } }
