
./octez-client --protocol ProtoALphaALphaALphaALphaALphaALphaALphaALphaDdp3zK --mode mockup --no-base-dir-warnings typecheck script tests_python/contracts_alpha/opcodes/big_map_mem_string.tz --details
Well typed
Gas remaining: 1039993.494 units remaining
{ parameter string ;
  storage (pair (big_map string nat) (option bool)) ;
  code { UNPAIR
         /* [ string : pair (big_map string nat) (option bool) ] */ ;
         DIP { CAR
               /* [ big_map string nat ] */ ;
               DUP
               /* [ big_map string nat : big_map string nat ] */ }
         /* [ string : big_map string nat : big_map string nat ] */ ;
         MEM
         /* [ bool : big_map string nat ] */ ;
         SOME
         /* [ option bool : big_map string nat ] */ ;
         SWAP
         /* [ big_map string nat : option bool ] */ ;
         PAIR
         /* [ pair (big_map string nat) (option bool) ] */ ;
         NIL operation
         /* [ list operation : pair (big_map string nat) (option bool) ] */ ;
         PAIR
         /* [ pair (list operation) (big_map string nat) (option bool) ] */ } }
