
./octez-client --protocol ProtoALphaALphaALphaALphaALphaALphaALphaALphaDdp3zK --mode mockup --no-base-dir-warnings typecheck script tests_python/contracts_alpha/attic/king_of_tez.tz --details
Well typed
Gas remaining: 1039974.327 units remaining
{ parameter key_hash ;
  storage (pair timestamp (pair mutez key_hash)) ;
  code { DUP
         /* [ pair key_hash timestamp mutez key_hash
            : pair key_hash timestamp mutez key_hash ] */ ;
         CDAR ;
         NOW
         /* [ timestamp : timestamp : pair key_hash timestamp mutez key_hash ] */ ;
         CMPGT ;
         IF { CAR
              /* [ key_hash ] */ ;
              AMOUNT
              /* [ mutez : key_hash ] */ ;
              PAIR
              /* [ pair mutez key_hash ] */ ;
              NOW
              /* [ timestamp : pair mutez key_hash ] */ ;
              PUSH int 604800
              /* [ int : timestamp : pair mutez key_hash ] */ ;
              ADD
              /* [ timestamp : pair mutez key_hash ] */ ;
              PAIR
              /* [ pair timestamp mutez key_hash ] */ ;
              NIL operation
              /* [ list operation : pair timestamp mutez key_hash ] */ }
            { DUP
              /* [ pair key_hash timestamp mutez key_hash
                 : pair key_hash timestamp mutez key_hash ] */ ;
              CDDAR ;
              AMOUNT
              /* [ mutez : mutez : pair key_hash timestamp mutez key_hash ] */ ;
              CMPLT ;
              IF { FAIL }
                 { CAR
                   /* [ key_hash ] */ ;
                   DUP
                   /* [ key_hash : key_hash ] */ ;
                   DIP { AMOUNT
                         /* [ mutez : key_hash ] */ ;
                         PAIR
                         /* [ pair mutez key_hash ] */ ;
                         NOW
                         /* [ timestamp : pair mutez key_hash ] */ ;
                         PUSH int 604800
                         /* [ int : timestamp : pair mutez key_hash ] */ ;
                         ADD
                         /* [ timestamp : pair mutez key_hash ] */ ;
                         PAIR
                         /* [ pair timestamp mutez key_hash ] */ }
                   /* [ key_hash : pair timestamp mutez key_hash ] */ ;
                   IMPLICIT_ACCOUNT
                   /* [ contract unit : pair timestamp mutez key_hash ] */ ;
                   AMOUNT
                   /* [ mutez : contract unit : pair timestamp mutez key_hash ] */ ;
                   UNIT
                   /* [ unit : mutez : contract unit : pair timestamp mutez key_hash ] */ ;
                   TRANSFER_TOKENS
                   /* [ operation : pair timestamp mutez key_hash ] */ ;
                   NIL operation
                   /* [ list operation : operation : pair timestamp mutez key_hash ] */ ;
                   SWAP
                   /* [ operation : list operation : pair timestamp mutez key_hash ] */ ;
                   CONS
                   /* [ list operation : pair timestamp mutez key_hash ] */ } } ;
         PAIR
         /* [ pair (list operation) timestamp mutez key_hash ] */ } }
