
./octez-client --protocol PtKathmankSpLLDALzWw7CGD2j2MtyveTwboEYokqUCP4a1LxMg --mode mockup --no-base-dir-warnings typecheck script tests_python/contracts_014/opcodes/neg.tz --details
Well typed
Gas remaining: 1039996.161 units remaining
{ parameter (or int nat) ;
  storage int ;
  code { CAR
         /* [ or int nat ] */ ;
         IF_LEFT { NEG /* [ int ] */ } { NEG /* [ int ] */ } ;
         NIL operation
         /* [ list operation : int ] */ ;
         PAIR
         /* [ pair (list operation) int ] */ } }
