
./octez-client --protocol PtKathmankSpLLDALzWw7CGD2j2MtyveTwboEYokqUCP4a1LxMg --mode mockup --no-base-dir-warnings typecheck script tests_python/contracts_014/opcodes/create_contract_rootname.tz --details
Well typed
Gas remaining: 1039991.584 units remaining
{ parameter unit ;
  storage (option address) ;
  code { /* [ pair unit unit ] */
         DROP
         /* [ list operation : unit ] */ ;
         UNIT
         /* [ unit ] */ ;
         AMOUNT
         /* [ pair (list operation) unit ] */ ;
         NONE key_hash
         /* [ option key_hash : mutez : unit ] */ ;
         CREATE_CONTRACT
           { parameter (unit %root) ;
             storage unit ;
             code { CDR ; NIL operation ; PAIR } }
         /* [ operation : address ] */ ;
         DIP { SOME
               /* [ option address ] */ ;
               NIL operation
               /* [ list operation : option address ] */ }
         /* [ operation : list operation : option address ] */ ;
         CONS
         /* [ list operation : option address ] */ ;
         PAIR
         /* [ pair (list operation) (option address) ] */ } }
