
./octez-client --protocol PtKathmankSpLLDALzWw7CGD2j2MtyveTwboEYokqUCP4a1LxMg --mode mockup --no-base-dir-warnings typecheck script tests_python/contracts_014/attic/add1.tz --details
Well typed
Gas remaining: 1039996.774 units remaining
{ parameter int ;
  storage int ;
  code { CAR
         /* [ int ] */ ;
         PUSH int 1
         /* [ int : int ] */ ;
         ADD
         /* [ int ] */ ;
         NIL operation
         /* [ list operation : int ] */ ;
         PAIR
         /* [ pair (list operation) int ] */ } }
