
./octez-client --protocol PtKathmankSpLLDALzWw7CGD2j2MtyveTwboEYokqUCP4a1LxMg --mode mockup --no-base-dir-warnings typecheck script tests_python/contracts_014/opcodes/exec_concat.tz --details
Well typed
Gas remaining: 1039992.377 units remaining
{ parameter string ;
  storage string ;
  code { CAR
         /* [ string ] */ ;
         LAMBDA
           string
           string
           { PUSH string "_abc"
             /* [ string : string ] */ ;
             NIL string
             /* [ list string : string : string ] */ ;
             SWAP
             /* [ string : list string : string ] */ ;
             CONS
             /* [ list string : string ] */ ;
             SWAP
             /* [ string : list string ] */ ;
             CONS
             /* [ list string ] */ ;
             CONCAT
             /* [ string ] */ }
         /* [ lambda string string : string ] */ ;
         SWAP
         /* [ string : lambda string string ] */ ;
         EXEC
         /* [ string ] */ ;
         NIL operation
         /* [ list operation : string ] */ ;
         PAIR
         /* [ pair (list operation) string ] */ } }
