
./octez-client --protocol PtKathmankSpLLDALzWw7CGD2j2MtyveTwboEYokqUCP4a1LxMg --mode mockup --no-base-dir-warnings typecheck script tests_python/contracts_014/opcodes/list_iter.tz --details
Well typed
Gas remaining: 1039995.593 units remaining
{ parameter (list int) ;
  storage int ;
  code { CAR
         /* [ list int ] */ ;
         PUSH int 1
         /* [ int : list int ] */ ;
         SWAP
         /* [ list int : int ] */ ;
         ITER { MUL /* [ int ] */ }
         /* [ int ] */ ;
         NIL operation
         /* [ list operation : int ] */ ;
         PAIR
         /* [ pair (list operation) int ] */ } }
