
./octez-client --protocol PtKathmankSpLLDALzWw7CGD2j2MtyveTwboEYokqUCP4a1LxMg --mode mockup --no-base-dir-warnings typecheck script tests_python/contracts_014/opcodes/comparisons.tz --details
Well typed
Gas remaining: 1039977.212 units remaining
{ parameter (list int) ;
  storage (list (list bool)) ;
  code { CAR
         /* [ list int ] */ ;
         NIL (list bool)
         /* [ list (list bool) : list int ] */ ;
         DIP { DUP
               /* [ list int : list int ] */ ;
               MAP { EQ /* [ bool : list int ] */ }
               /* [ list bool : list int ] */ }
         /* [ list (list bool) : list bool : list int ] */ ;
         SWAP
         /* [ list bool : list (list bool) : list int ] */ ;
         CONS
         /* [ list (list bool) : list int ] */ ;
         DIP { DUP
               /* [ list int : list int ] */ ;
               MAP { NEQ /* [ bool : list int ] */ }
               /* [ list bool : list int ] */ }
         /* [ list (list bool) : list bool : list int ] */ ;
         SWAP
         /* [ list bool : list (list bool) : list int ] */ ;
         CONS
         /* [ list (list bool) : list int ] */ ;
         DIP { DUP
               /* [ list int : list int ] */ ;
               MAP { LE /* [ bool : list int ] */ }
               /* [ list bool : list int ] */ }
         /* [ list (list bool) : list bool : list int ] */ ;
         SWAP
         /* [ list bool : list (list bool) : list int ] */ ;
         CONS
         /* [ list (list bool) : list int ] */ ;
         DIP { DUP
               /* [ list int : list int ] */ ;
               MAP { LT /* [ bool : list int ] */ }
               /* [ list bool : list int ] */ }
         /* [ list (list bool) : list bool : list int ] */ ;
         SWAP
         /* [ list bool : list (list bool) : list int ] */ ;
         CONS
         /* [ list (list bool) : list int ] */ ;
         DIP { DUP
               /* [ list int : list int ] */ ;
               MAP { GE /* [ bool : list int ] */ }
               /* [ list bool : list int ] */ }
         /* [ list (list bool) : list bool : list int ] */ ;
         SWAP
         /* [ list bool : list (list bool) : list int ] */ ;
         CONS
         /* [ list (list bool) : list int ] */ ;
         DIP { MAP { GT /* [ bool ] */ } /* [ list bool ] */ }
         /* [ list (list bool) : list bool ] */ ;
         SWAP
         /* [ list bool : list (list bool) ] */ ;
         CONS
         /* [ list (list bool) ] */ ;
         NIL operation
         /* [ list operation : list (list bool) ] */ ;
         PAIR
         /* [ pair (list operation) (list (list bool)) ] */ } }
