
./octez-client --protocol PtLimaPtLMwfNinJi9rCfDPWea8dFgTZ1MeJ9f1m2SRic6ayiwW --mode mockup --no-base-dir-warnings typecheck script tests_python/contracts_015/opcodes/pexec_2.tz --details
Well typed
Gas remaining: 1039988.161 units remaining
{ parameter int ;
  storage (list int) ;
  code { UNPAIR @p @s
         /* [ int : list int ] */ ;
         LAMBDA
           (pair int (pair int int))
           int
           { UNPAIR
             /* [ int : pair int int ] */ ;
             DIP { UNPAIR /* [ int : int ] */ }
             /* [ int : int : int ] */ ;
             ADD
             /* [ int : int ] */ ;
             MUL
             /* [ int ] */ }
         /* [ lambda (pair int int int) int : int : list int ] */ ;
         SWAP
         /* [ int : lambda (pair int int int) int : list int ] */ ;
         APPLY
         /* [ lambda (pair int int) int : list int ] */ ;
         PUSH int 3
         /* [ int : lambda (pair int int) int : list int ] */ ;
         APPLY
         /* [ lambda int int : list int ] */ ;
         SWAP
         /* [ list int : lambda int int ] */ ;
         MAP { DIP { DUP /* [ lambda int int : lambda int int ] */ }
               /* [ int : lambda int int : lambda int int ] */ ;
               EXEC
               /* [ int : lambda int int ] */ }
         /* [ list int : lambda int int ] */ ;
         DIP { DROP /* [] */ }
         /* [ list int ] */ ;
         NIL operation
         /* [ list operation : list int ] */ ;
         PAIR
         /* [ pair (list operation) (list int) ] */ } }
