
./octez-client --protocol PtLimaPtLMwfNinJi9rCfDPWea8dFgTZ1MeJ9f1m2SRic6ayiwW --mode mockup --no-base-dir-warnings typecheck script tests_python/contracts_015/attic/cps_fact.tz --details
Well typed
Gas remaining: 1039976.109 units remaining
{ storage nat ;
  parameter nat ;
  code { UNPAIR
         /* [ nat : nat ] */ ;
         DIP { SELF
               /* [ contract nat : nat ] */ ;
               ADDRESS
               /* [ address : nat ] */ ;
               SENDER
               /* [ address : address : nat ] */ ;
               IFCMPEQ { /* [ nat ] */ } { DROP /* [] */ ; PUSH @storage nat 1 /* [ nat ] */ } }
         /* [ nat : nat ] */ ;
         DUP
         /* [ nat : nat : nat ] */ ;
         PUSH nat 1
         /* [ nat : nat : nat : nat ] */ ;
         IFCMPGE
           { DROP
             /* [ nat ] */ ;
             NIL operation
             /* [ list operation : nat ] */ ;
             PAIR
             /* [ pair (list operation) nat ] */ }
           { PUSH nat 1
             /* [ nat : nat : nat ] */ ;
             SWAP
             /* [ nat : nat : nat ] */ ;
             SUB @parameter
             /* [ int : nat ] */ ;
             ISNAT
             /* [ option nat : nat ] */ ;
             IF_NONE
               { NIL operation
                 /* [ list operation : nat ] */ ;
                 PAIR
                 /* [ pair (list operation) nat ] */ }
               { DUP
                 /* [ nat : nat : nat ] */ ;
                 DIP { PUSH nat 1
                       /* [ nat : nat : nat ] */ ;
                       ADD
                       /* [ nat : nat ] */ ;
                       MUL @storage
                       /* [ nat ] */ }
                 /* [ nat : nat ] */ ;
                 SWAP
                 /* [ nat : nat ] */ ;
                 DIP { DIP { SELF /* [ contract nat ] */ ; PUSH mutez 0 /* [ mutez : contract nat ] */ }
                       /* [ nat : mutez : contract nat ] */ ;
                       TRANSFER_TOKENS
                       /* [ operation ] */ ;
                       NIL operation
                       /* [ list operation : operation ] */ ;
                       SWAP
                       /* [ operation : list operation ] */ ;
                       CONS
                       /* [ list operation ] */ }
                 /* [ nat : list operation ] */ ;
                 SWAP
                 /* [ list operation : nat ] */ ;
                 PAIR
                 /* [ pair (list operation) nat ] */ } } } }
