
./octez-client --protocol PtLimaPtLMwfNinJi9rCfDPWea8dFgTZ1MeJ9f1m2SRic6ayiwW --mode mockup --no-base-dir-warnings typecheck script tests_python/contracts_015/opcodes/dup-n.tz --details
Well typed
Gas remaining: 1039968.032 units remaining
{ parameter unit ;
  storage unit ;
  code { DROP
         /* [] */ ;
         PUSH nat 5
         /* [ nat ] */ ;
         PUSH nat 4
         /* [ nat : nat ] */ ;
         PUSH nat 3
         /* [ nat : nat : nat ] */ ;
         PUSH nat 2
         /* [ nat : nat : nat : nat ] */ ;
         PUSH nat 1
         /* [ nat : nat : nat : nat : nat ] */ ;
         DUP 1
         /* [ nat : nat : nat : nat : nat : nat ] */ ;
         PUSH nat 1
         /* [ nat : nat : nat : nat : nat : nat : nat ] */ ;
         ASSERT_CMPEQ ;
         DUP 2
         /* [ nat : nat : nat : nat : nat : nat ] */ ;
         PUSH nat 2
         /* [ nat : nat : nat : nat : nat : nat : nat ] */ ;
         ASSERT_CMPEQ ;
         DUP 3
         /* [ nat : nat : nat : nat : nat : nat ] */ ;
         PUSH nat 3
         /* [ nat : nat : nat : nat : nat : nat : nat ] */ ;
         ASSERT_CMPEQ ;
         DUP 4
         /* [ nat : nat : nat : nat : nat : nat ] */ ;
         PUSH nat 4
         /* [ nat : nat : nat : nat : nat : nat : nat ] */ ;
         ASSERT_CMPEQ ;
         DUP 5
         /* [ nat : nat : nat : nat : nat : nat ] */ ;
         PUSH nat 5
         /* [ nat : nat : nat : nat : nat : nat : nat ] */ ;
         ASSERT_CMPEQ ;
         DROP 5
         /* [] */ ;
         UNIT
         /* [ unit ] */ ;
         NIL operation
         /* [ list operation : unit ] */ ;
         PAIR
         /* [ pair (list operation) unit ] */ } }
