
./octez-client --protocol PtLimaPtLMwfNinJi9rCfDPWea8dFgTZ1MeJ9f1m2SRic6ayiwW --mode mockup --no-base-dir-warnings typecheck script tests_python/contracts_015/opcodes/bls12_381_fr_z_nat.tz --details
Well typed
Gas remaining: 1039997.443 units remaining
{ parameter nat ;
  storage bls12_381_fr ;
  code { UNPAIR
         /* [ nat : bls12_381_fr ] */ ;
         MUL
         /* [ bls12_381_fr ] */ ;
         NIL operation
         /* [ list operation : bls12_381_fr ] */ ;
         PAIR
         /* [ pair (list operation) bls12_381_fr ] */ } }
