
./octez-client --protocol PtLimaPtLMwfNinJi9rCfDPWea8dFgTZ1MeJ9f1m2SRic6ayiwW --mode mockup --no-base-dir-warnings typecheck script tests_python/contracts_015/opcodes/concat_list.tz --details
Well typed
Gas remaining: 1039992.537 units remaining
{ parameter (list string) ;
  storage string ;
  code { CAR
         /* [ list string ] */ ;
         PUSH string ""
         /* [ string : list string ] */ ;
         SWAP
         /* [ list string : string ] */ ;
         ITER { SWAP
                /* [ string : string ] */ ;
                DIP { NIL string
                      /* [ list string : string ] */ ;
                      SWAP
                      /* [ string : list string ] */ ;
                      CONS
                      /* [ list string ] */ }
                /* [ string : list string ] */ ;
                CONS
                /* [ list string ] */ ;
                CONCAT
                /* [ string ] */ }
         /* [ string ] */ ;
         NIL operation
         /* [ list operation : string ] */ ;
         PAIR
         /* [ pair (list operation) string ] */ } }
