
./octez-client --protocol PtLimaPtLMwfNinJi9rCfDPWea8dFgTZ1MeJ9f1m2SRic6ayiwW --mode mockup --no-base-dir-warnings typecheck script tests_python/contracts_015/opcodes/ticketer.tz --details
Well typed
Gas remaining: 1039986.744 units remaining
{ parameter address ;
  storage nat ;
  code { UNPAIR
         /* [ address : nat ] */ ;
         DIP { DUP /* [ nat : nat ] */ }
         /* [ address : nat : nat ] */ ;
         SWAP
         /* [ nat : address : nat ] */ ;
         PUSH nat 1
         /* [ nat : nat : address : nat ] */ ;
         SWAP
         /* [ nat : nat : address : nat ] */ ;
         TICKET
         /* [ option (ticket nat) : address : nat ] */ ;
         ASSERT_SOME ;
         DIP { CONTRACT (ticket nat)
               /* [ option (contract (ticket nat)) : nat ] */ ;
               ASSERT_SOME ;
               PUSH mutez 0
               /* [ mutez : contract (ticket nat) : nat ] */ }
         /* [ ticket nat : mutez : contract (ticket nat) : nat ] */ ;
         TRANSFER_TOKENS
         /* [ operation : nat ] */ ;
         NIL operation
         /* [ list operation : operation : nat ] */ ;
         SWAP
         /* [ operation : list operation : nat ] */ ;
         CONS
         /* [ list operation : nat ] */ ;
         PAIR
         /* [ pair (list operation) nat ] */ } }
