
./octez-client --protocol PtLimaPtLMwfNinJi9rCfDPWea8dFgTZ1MeJ9f1m2SRic6ayiwW --mode mockup --no-base-dir-warnings typecheck script tests_python/contracts_015/opcodes/slice_bytes.tz --details
Well typed
Gas remaining: 1039993.747 units remaining
{ parameter (pair nat nat) ;
  storage (option bytes) ;
  code { UNPAIR
         /* [ pair nat nat : option bytes ] */ ;
         SWAP
         /* [ option bytes : pair nat nat ] */ ;
         IF_SOME
           { SWAP
             /* [ pair nat nat : bytes ] */ ;
             UNPAIR
             /* [ nat : nat : bytes ] */ ;
             SLICE
             /* [ option bytes ] */ }
           { DROP /* [] */ ; NONE bytes /* [ option bytes ] */ } ;
         NIL operation
         /* [ list operation : option bytes ] */ ;
         PAIR
         /* [ pair (list operation) (option bytes) ] */ } }
